{
    "size": 3,
    "algorithm": "a_star misplaced_tiles",
    "number_of_steps": 21,
    "algorithm_time": "33.865",
    "path": [
        [
            "[  0  1  2]",
            "[  7  3  6]",
            "[  8  4  5]"
        ],
        [
            "[  7  1  2]",
            "[  0  3  6]",
            "[  8  4  5]"
        ],
        [
            "[  7  1  2]",
            "[  8  3  6]",
            "[  0  4  5]"
        ],
        [
            "[  7  1  2]",
            "[  8  3  6]",
            "[  4  0  5]"
        ],
        [
            "[  7  1  2]",
            "[  8  3  6]",
            "[  4  5  0]"
        ],
        [
            "[  7  1  2]",
            "[  8  3  0]",
            "[  4  5  6]"
        ],
        [
            "[  7  1  2]",
            "[  8  0  3]",
            "[  4  5  6]"
        ],
        [
            "[  7  1  2]",
            "[  8  5  3]",
            "[  4  0  6]"
        ],
        [
            "[  7  1  2]",
            "[  8  5  3]",
            "[  0  4  6]"
        ],
        [
            "[  7  1  2]",
            "[  0  5  3]",
            "[  8  4  6]"
        ],
        [
            "[  0  1  2]",
            "[  7  5  3]",
            "[  8  4  6]"
        ],
        [
            "[  1  0  2]",
            "[  7  5  3]",
            "[  8  4  6]"
        ],
        [
            "[  1  2  0]",
            "[  7  5  3]",
            "[  8  4  6]"
        ],
        [
            "[  1  2  3]",
            "[  7  5  0]",
            "[  8  4  6]"
        ],
        [
            "[  1  2  3]",
            "[  7  0  5]",
            "[  8  4  6]"
        ],
        [
            "[  1  2  3]",
            "[  7  4  5]",
            "[  8  0  6]"
        ],
        [
            "[  1  2  3]",
            "[  7  4  5]",
            "[  0  8  6]"
        ],
        [
            "[  1  2  3]",
            "[  0  4  5]",
            "[  7  8  6]"
        ],
        [
            "[  1  2  3]",
            "[  4  0  5]",
            "[  7  8  6]"
        ],
        [
            "[  1  2  3]",
            "[  4  5  0]",
            "[  7  8  6]"
        ],
        [
            "[  1  2  3]",
            "[  4  5  6]",
            "[  7  8  0]"
        ]
    ]
}