{
    "size": 3,
    "algorithm": "a_star manhattan_distance",
    "number_of_steps": 21,
    "algorithm_time": "0.402",
    "path": [
        [
            "[  7  4  0]",
            "[  3  6  2]",
            "[  1  8  5]"
        ],
        [
            "[  7  4  2]",
            "[  3  6  0]",
            "[  1  8  5]"
        ],
        [
            "[  7  4  2]",
            "[  3  0  6]",
            "[  1  8  5]"
        ],
        [
            "[  7  4  2]",
            "[  0  3  6]",
            "[  1  8  5]"
        ],
        [
            "[  7  4  2]",
            "[  1  3  6]",
            "[  0  8  5]"
        ],
        [
            "[  7  4  2]",
            "[  1  3  6]",
            "[  8  0  5]"
        ],
        [
            "[  7  4  2]",
            "[  1  3  6]",
            "[  8  5  0]"
        ],
        [
            "[  7  4  2]",
            "[  1  3  0]",
            "[  8  5  6]"
        ],
        [
            "[  7  4  2]",
            "[  1  0  3]",
            "[  8  5  6]"
        ],
        [
            "[  7  4  2]",
            "[  0  1  3]",
            "[  8  5  6]"
        ],
        [
            "[  0  4  2]",
            "[  7  1  3]",
            "[  8  5  6]"
        ],
        [
            "[  4  0  2]",
            "[  7  1  3]",
            "[  8  5  6]"
        ],
        [
            "[  4  1  2]",
            "[  7  0  3]",
            "[  8  5  6]"
        ],
        [
            "[  4  1  2]",
            "[  7  5  3]",
            "[  8  0  6]"
        ],
        [
            "[  4  1  2]",
            "[  7  5  3]",
            "[  0  8  6]"
        ],
        [
            "[  4  1  2]",
            "[  0  5  3]",
            "[  7  8  6]"
        ],
        [
            "[  0  1  2]",
            "[  4  5  3]",
            "[  7  8  6]"
        ],
        [
            "[  1  0  2]",
            "[  4  5  3]",
            "[  7  8  6]"
        ],
        [
            "[  1  2  0]",
            "[  4  5  3]",
            "[  7  8  6]"
        ],
        [
            "[  1  2  3]",
            "[  4  5  0]",
            "[  7  8  6]"
        ],
        [
            "[  1  2  3]",
            "[  4  5  6]",
            "[  7  8  0]"
        ]
    ]
}