{
    "size": 4,
    "algorithm": "a_star manhattan_distance",
    "number_of_steps": 41,
    "algorithm_time": "17.022",
    "path": [
        [
            "[   8   9   2  11]",
            "[   1   4  12  14]",
            "[  15   5   3   7]",
            "[  13   6  10   0]"
        ],
        [
            "[   8   9   2  11]",
            "[   1   4  12  14]",
            "[  15   5   3   0]",
            "[  13   6  10   7]"
        ],
        [
            "[   8   9   2  11]",
            "[   1   4  12   0]",
            "[  15   5   3  14]",
            "[  13   6  10   7]"
        ],
        [
            "[   8   9   2  11]",
            "[   1   4   0  12]",
            "[  15   5   3  14]",
            "[  13   6  10   7]"
        ],
        [
            "[   8   9   2  11]",
            "[   1   0   4  12]",
            "[  15   5   3  14]",
            "[  13   6  10   7]"
        ],
        [
            "[   8   0   2  11]",
            "[   1   9   4  12]",
            "[  15   5   3  14]",
            "[  13   6  10   7]"
        ],
        [
            "[   0   8   2  11]",
            "[   1   9   4  12]",
            "[  15   5   3  14]",
            "[  13   6  10   7]"
        ],
        [
            "[   1   8   2  11]",
            "[   0   9   4  12]",
            "[  15   5   3  14]",
            "[  13   6  10   7]"
        ],
        [
            "[   1   8   2  11]",
            "[   9   0   4  12]",
            "[  15   5   3  14]",
            "[  13   6  10   7]"
        ],
        [
            "[   1   8   2  11]",
            "[   9   5   4  12]",
            "[  15   0   3  14]",
            "[  13   6  10   7]"
        ],
        [
            "[   1   8   2  11]",
            "[   9   5   4  12]",
            "[   0  15   3  14]",
            "[  13   6  10   7]"
        ],
        [
            "[   1   8   2  11]",
            "[   0   5   4  12]",
            "[   9  15   3  14]",
            "[  13   6  10   7]"
        ],
        [
            "[   1   8   2  11]",
            "[   5   0   4  12]",
            "[   9  15   3  14]",
            "[  13   6  10   7]"
        ],
        [
            "[   1   0   2  11]",
            "[   5   8   4  12]",
            "[   9  15   3  14]",
            "[  13   6  10   7]"
        ],
        [
            "[   1   2   0  11]",
            "[   5   8   4  12]",
            "[   9  15   3  14]",
            "[  13   6  10   7]"
        ],
        [
            "[   1   2   4  11]",
            "[   5   8   0  12]",
            "[   9  15   3  14]",
            "[  13   6  10   7]"
        ],
        [
            "[   1   2   4  11]",
            "[   5   8   3  12]",
            "[   9  15   0  14]",
            "[  13   6  10   7]"
        ],
        [
            "[   1   2   4  11]",
            "[   5   8   3  12]",
            "[   9   0  15  14]",
            "[  13   6  10   7]"
        ],
        [
            "[   1   2   4  11]",
            "[   5   8   3  12]",
            "[   9   6  15  14]",
            "[  13   0  10   7]"
        ],
        [
            "[   1   2   4  11]",
            "[   5   8   3  12]",
            "[   9   6  15  14]",
            "[  13  10   0   7]"
        ],
        [
            "[   1   2   4  11]",
            "[   5   8   3  12]",
            "[   9   6  15  14]",
            "[  13  10   7   0]"
        ],
        [
            "[   1   2   4  11]",
            "[   5   8   3  12]",
            "[   9   6  15   0]",
            "[  13  10   7  14]"
        ],
        [
            "[   1   2   4  11]",
            "[   5   8   3  12]",
            "[   9   6   0  15]",
            "[  13  10   7  14]"
        ],
        [
            "[   1   2   4  11]",
            "[   5   8   3  12]",
            "[   9   6   7  15]",
            "[  13  10   0  14]"
        ],
        [
            "[   1   2   4  11]",
            "[   5   8   3  12]",
            "[   9   6   7  15]",
            "[  13  10  14   0]"
        ],
        [
            "[   1   2   4  11]",
            "[   5   8   3  12]",
            "[   9   6   7   0]",
            "[  13  10  14  15]"
        ],
        [
            "[   1   2   4  11]",
            "[   5   8   3   0]",
            "[   9   6   7  12]",
            "[  13  10  14  15]"
        ],
        [
            "[   1   2   4   0]",
            "[   5   8   3  11]",
            "[   9   6   7  12]",
            "[  13  10  14  15]"
        ],
        [
            "[   1   2   0   4]",
            "[   5   8   3  11]",
            "[   9   6   7  12]",
            "[  13  10  14  15]"
        ],
        [
            "[   1   2   3   4]",
            "[   5   8   0  11]",
            "[   9   6   7  12]",
            "[  13  10  14  15]"
        ],
        [
            "[   1   2   3   4]",
            "[   5   0   8  11]",
            "[   9   6   7  12]",
            "[  13  10  14  15]"
        ],
        [
            "[   1   2   3   4]",
            "[   5   6   8  11]",
            "[   9   0   7  12]",
            "[  13  10  14  15]"
        ],
        [
            "[   1   2   3   4]",
            "[   5   6   8  11]",
            "[   9  10   7  12]",
            "[  13   0  14  15]"
        ],
        [
            "[   1   2   3   4]",
            "[   5   6   8  11]",
            "[   9  10   7  12]",
            "[  13  14   0  15]"
        ],
        [
            "[   1   2   3   4]",
            "[   5   6   8  11]",
            "[   9  10   7  12]",
            "[  13  14  15   0]"
        ],
        [
            "[   1   2   3   4]",
            "[   5   6   8  11]",
            "[   9  10   7   0]",
            "[  13  14  15  12]"
        ],
        [
            "[   1   2   3   4]",
            "[   5   6   8   0]",
            "[   9  10   7  11]",
            "[  13  14  15  12]"
        ],
        [
            "[   1   2   3   4]",
            "[   5   6   0   8]",
            "[   9  10   7  11]",
            "[  13  14  15  12]"
        ],
        [
            "[   1   2   3   4]",
            "[   5   6   7   8]",
            "[   9  10   0  11]",
            "[  13  14  15  12]"
        ],
        [
            "[   1   2   3   4]",
            "[   5   6   7   8]",
            "[   9  10  11   0]",
            "[  13  14  15  12]"
        ],
        [
            "[   1   2   3   4]",
            "[   5   6   7   8]",
            "[   9  10  11  12]",
            "[  13  14  15   0]"
        ]
    ]
}