{
    "size": 3,
    "algorithm": "a_star misplaced_tiles",
    "number_of_steps": 22,
    "algorithm_time": "51.584",
    "path": [
        [
            "[  5  1  7]",
            "[  8  4  2]",
            "[  3  0  6]"
        ],
        [
            "[  5  1  7]",
            "[  8  4  2]",
            "[  0  3  6]"
        ],
        [
            "[  5  1  7]",
            "[  0  4  2]",
            "[  8  3  6]"
        ],
        [
            "[  5  1  7]",
            "[  4  0  2]",
            "[  8  3  6]"
        ],
        [
            "[  5  1  7]",
            "[  4  3  2]",
            "[  8  0  6]"
        ],
        [
            "[  5  1  7]",
            "[  4  3  2]",
            "[  0  8  6]"
        ],
        [
            "[  5  1  7]",
            "[  0  3  2]",
            "[  4  8  6]"
        ],
        [
            "[  0  1  7]",
            "[  5  3  2]",
            "[  4  8  6]"
        ],
        [
            "[  1  0  7]",
            "[  5  3  2]",
            "[  4  8  6]"
        ],
        [
            "[  1  3  7]",
            "[  5  0  2]",
            "[  4  8  6]"
        ],
        [
            "[  1  3  7]",
            "[  5  2  0]",
            "[  4  8  6]"
        ],
        [
            "[  1  3  0]",
            "[  5  2  7]",
            "[  4  8  6]"
        ],
        [
            "[  1  0  3]",
            "[  5  2  7]",
            "[  4  8  6]"
        ],
        [
            "[  1  2  3]",
            "[  5  0  7]",
            "[  4  8  6]"
        ],
        [
            "[  1  2  3]",
            "[  5  7  0]",
            "[  4  8  6]"
        ],
        [
            "[  1  2  3]",
            "[  5  7  6]",
            "[  4  8  0]"
        ],
        [
            "[  1  2  3]",
            "[  5  7  6]",
            "[  4  0  8]"
        ],
        [
            "[  1  2  3]",
            "[  5  0  6]",
            "[  4  7  8]"
        ],
        [
            "[  1  2  3]",
            "[  0  5  6]",
            "[  4  7  8]"
        ],
        [
            "[  1  2  3]",
            "[  4  5  6]",
            "[  0  7  8]"
        ],
        [
            "[  1  2  3]",
            "[  4  5  6]",
            "[  7  0  8]"
        ],
        [
            "[  1  2  3]",
            "[  4  5  6]",
            "[  7  8  0]"
        ]
    ]
}