{
    "size": 3,
    "algorithm": "a_star manhattan_distance",
    "number_of_steps": 21,
    "algorithm_time": "0.104",
    "path": [
        [
            "[  2  7  0]",
            "[  1  5  3]",
            "[  6  8  4]"
        ],
        [
            "[  2  7  3]",
            "[  1  5  0]",
            "[  6  8  4]"
        ],
        [
            "[  2  7  3]",
            "[  1  5  4]",
            "[  6  8  0]"
        ],
        [
            "[  2  7  3]",
            "[  1  5  4]",
            "[  6  0  8]"
        ],
        [
            "[  2  7  3]",
            "[  1  0  4]",
            "[  6  5  8]"
        ],
        [
            "[  2  0  3]",
            "[  1  7  4]",
            "[  6  5  8]"
        ],
        [
            "[  0  2  3]",
            "[  1  7  4]",
            "[  6  5  8]"
        ],
        [
            "[  1  2  3]",
            "[  0  7  4]",
            "[  6  5  8]"
        ],
        [
            "[  1  2  3]",
            "[  7  0  4]",
            "[  6  5  8]"
        ],
        [
            "[  1  2  3]",
            "[  7  4  0]",
            "[  6  5  8]"
        ],
        [
            "[  1  2  3]",
            "[  7  4  8]",
            "[  6  5  0]"
        ],
        [
            "[  1  2  3]",
            "[  7  4  8]",
            "[  6  0  5]"
        ],
        [
            "[  1  2  3]",
            "[  7  4  8]",
            "[  0  6  5]"
        ],
        [
            "[  1  2  3]",
            "[  0  4  8]",
            "[  7  6  5]"
        ],
        [
            "[  1  2  3]",
            "[  4  0  8]",
            "[  7  6  5]"
        ],
        [
            "[  1  2  3]",
            "[  4  6  8]",
            "[  7  0  5]"
        ],
        [
            "[  1  2  3]",
            "[  4  6  8]",
            "[  7  5  0]"
        ],
        [
            "[  1  2  3]",
            "[  4  6  0]",
            "[  7  5  8]"
        ],
        [
            "[  1  2  3]",
            "[  4  0  6]",
            "[  7  5  8]"
        ],
        [
            "[  1  2  3]",
            "[  4  5  6]",
            "[  7  0  8]"
        ],
        [
            "[  1  2  3]",
            "[  4  5  6]",
            "[  7  8  0]"
        ]
    ]
}