{
    "size": 3,
    "algorithm": "bfs",
    "number_of_steps": 12,
    "algorithm_time": "0.602",
    "path": [
        [
            "[  2  3  6]",
            "[  7  1  4]",
            "[  5  0  8]"
        ],
        [
            "[  2  3  6]",
            "[  7  1  4]",
            "[  0  5  8]"
        ],
        [
            "[  2  3  6]",
            "[  0  1  4]",
            "[  7  5  8]"
        ],
        [
            "[  2  3  6]",
            "[  1  0  4]",
            "[  7  5  8]"
        ],
        [
            "[  2  3  6]",
            "[  1  4  0]",
            "[  7  5  8]"
        ],
        [
            "[  2  3  0]",
            "[  1  4  6]",
            "[  7  5  8]"
        ],
        [
            "[  2  0  3]",
            "[  1  4  6]",
            "[  7  5  8]"
        ],
        [
            "[  0  2  3]",
            "[  1  4  6]",
            "[  7  5  8]"
        ],
        [
            "[  1  2  3]",
            "[  0  4  6]",
            "[  7  5  8]"
        ],
        [
            "[  1  2  3]",
            "[  4  0  6]",
            "[  7  5  8]"
        ],
        [
            "[  1  2  3]",
            "[  4  5  6]",
            "[  7  0  8]"
        ],
        [
            "[  1  2  3]",
            "[  4  5  6]",
            "[  7  8  0]"
        ]
    ]
}