{
    "size": 3,
    "algorithm": "a_star manhattan_distance",
    "number_of_steps": 21,
    "algorithm_time": "0.876",
    "path": [
        [
            "[  8  5  2]",
            "[  4  0  3]",
            "[  7  6  1]"
        ],
        [
            "[  8  0  2]",
            "[  4  5  3]",
            "[  7  6  1]"
        ],
        [
            "[  0  8  2]",
            "[  4  5  3]",
            "[  7  6  1]"
        ],
        [
            "[  4  8  2]",
            "[  0  5  3]",
            "[  7  6  1]"
        ],
        [
            "[  4  8  2]",
            "[  5  0  3]",
            "[  7  6  1]"
        ],
        [
            "[  4  0  2]",
            "[  5  8  3]",
            "[  7  6  1]"
        ],
        [
            "[  4  2  0]",
            "[  5  8  3]",
            "[  7  6  1]"
        ],
        [
            "[  4  2  3]",
            "[  5  8  0]",
            "[  7  6  1]"
        ],
        [
            "[  4  2  3]",
            "[  5  8  1]",
            "[  7  6  0]"
        ],
        [
            "[  4  2  3]",
            "[  5  8  1]",
            "[  7  0  6]"
        ],
        [
            "[  4  2  3]",
            "[  5  0  1]",
            "[  7  8  6]"
        ],
        [
            "[  4  2  3]",
            "[  5  1  0]",
            "[  7  8  6]"
        ],
        [
            "[  4  2  0]",
            "[  5  1  3]",
            "[  7  8  6]"
        ],
        [
            "[  4  0  2]",
            "[  5  1  3]",
            "[  7  8  6]"
        ],
        [
            "[  4  1  2]",
            "[  5  0  3]",
            "[  7  8  6]"
        ],
        [
            "[  4  1  2]",
            "[  0  5  3]",
            "[  7  8  6]"
        ],
        [
            "[  0  1  2]",
            "[  4  5  3]",
            "[  7  8  6]"
        ],
        [
            "[  1  0  2]",
            "[  4  5  3]",
            "[  7  8  6]"
        ],
        [
            "[  1  2  0]",
            "[  4  5  3]",
            "[  7  8  6]"
        ],
        [
            "[  1  2  3]",
            "[  4  5  0]",
            "[  7  8  6]"
        ],
        [
            "[  1  2  3]",
            "[  4  5  6]",
            "[  7  8  0]"
        ]
    ]
}