{
    "size": 3,
    "algorithm": "a_star manhattan_distance",
    "number_of_steps": 15,
    "algorithm_time": "0.022",
    "path": [
        [
            "[  1  3  6]",
            "[  4  7  8]",
            "[  5  2  0]"
        ],
        [
            "[  1  3  6]",
            "[  4  7  0]",
            "[  5  2  8]"
        ],
        [
            "[  1  3  0]",
            "[  4  7  6]",
            "[  5  2  8]"
        ],
        [
            "[  1  0  3]",
            "[  4  7  6]",
            "[  5  2  8]"
        ],
        [
            "[  0  1  3]",
            "[  4  7  6]",
            "[  5  2  8]"
        ],
        [
            "[  4  1  3]",
            "[  0  7  6]",
            "[  5  2  8]"
        ],
        [
            "[  4  1  3]",
            "[  7  0  6]",
            "[  5  2  8]"
        ],
        [
            "[  4  1  3]",
            "[  7  2  6]",
            "[  5  0  8]"
        ],
        [
            "[  4  1  3]",
            "[  7  2  6]",
            "[  0  5  8]"
        ],
        [
            "[  4  1  3]",
            "[  0  2  6]",
            "[  7  5  8]"
        ],
        [
            "[  0  1  3]",
            "[  4  2  6]",
            "[  7  5  8]"
        ],
        [
            "[  1  0  3]",
            "[  4  2  6]",
            "[  7  5  8]"
        ],
        [
            "[  1  2  3]",
            "[  4  0  6]",
            "[  7  5  8]"
        ],
        [
            "[  1  2  3]",
            "[  4  5  6]",
            "[  7  0  8]"
        ],
        [
            "[  1  2  3]",
            "[  4  5  6]",
            "[  7  8  0]"
        ]
    ]
}